[{"line":1,"elements":[{"line":3,"name":"","description":"","type":"background","keyword":"Background","steps":[{"name":"def expectedOutput = read('..\/\/..\/\/testdata\/\/result1A.json')","result":{"duration":417735100,"status":"passed"},"match":{"location":"karate","arguments":[]},"keyword":"*","line":4,"doc_string":{"content_type":"","value":"01:10:56.247 skipping bootstrap configuration: could not find or read file: classpath:karate-config.js","line":4}}]},{"line":6,"name":"request user 4 details","description":"","id":"request-user-4-details","type":"scenario","keyword":"Scenario","steps":[{"name":"url 'https:\/\/reqres.in\/api\/users?page2'","result":{"duration":3219500,"status":"passed"},"match":{"location":"karate","arguments":[]},"keyword":"Given","line":7},{"name":"method GET","result":{"duration":1068105600,"status":"passed"},"match":{"location":"karate","arguments":[]},"keyword":"When","line":8,"doc_string":{"content_type":"","value":"01:10:57.269 request:\n1 > GET https:\/\/reqres.in\/api\/users?page2\n1 > Accept-Encoding: gzip,deflate\n1 > Connection: Keep-Alive\n1 > Host: reqres.in\n1 > User-Agent: Apache-HttpClient\/4.5.12 (Java\/11.0.9.1)\n\n01:10:57.707 response time in milliseconds: 433.51\n1 < 200\n1 < Access-Control-Allow-Origin: *\n1 < CF-Cache-Status: MISS\n1 < CF-RAY: 612c3311fc0940e4-LHR\n1 < Cache-Control: max-age=14400\n1 < Connection: keep-alive\n1 < Content-Type: application\/json; charset=utf-8\n1 < Date: Sun, 17 Jan 2021 01:10:57 GMT\n1 < Etag: W\/\"3e4-2RLXvr5wTg9YQ6aH95CkYoFNuO8\"\n1 < Expect-CT: max-age=604800, report-uri=\"https:\/\/report-uri.cloudflare.com\/cdn-cgi\/beacon\/expect-ct\"\n1 < NEL: {\"report_to\":\"cf-nel\",\"max_age\":604800}\n1 < Report-To: {\"endpoints\":[{\"url\":\"https:\\\/\\\/a.nel.cloudflare.com\\\/report?s=mdrcHDvr1JTYYB%2FZk%2BGfR9jmR6Bn2MdqyiLMXaAKGM2XFEA%2F4EdK3LmxUE%2FpPJHzCH5eRMOxYxgru9X%2FijBZjIZaGrBBGeXVsBY%3D\"}],\"group\":\"cf-nel\",\"max_age\":604800}\n1 < Server: cloudflare\n1 < Set-Cookie: __cfduid=da86c95034eacf204521aee4fcdc678c71610845857; expires=Tue, 16-Feb-21 01:10:57 GMT; path=\/; domain=.reqres.in; HttpOnly; SameSite=Lax; Secure\n1 < Transfer-Encoding: chunked\n1 < Vary: Accept-Encoding\n1 < Via: 1.1 vegur\n1 < X-Powered-By: Express\n1 < cf-request-id: 07af7e3f38000040e471302000000001\n{\"page\":1,\"per_page\":6,\"total\":12,\"total_pages\":2,\"data\":[{\"id\":1,\"email\":\"george.bluth@reqres.in\",\"first_name\":\"George\",\"last_name\":\"Bluth\",\"avatar\":\"https:\/\/reqres.in\/img\/faces\/1-image.jpg\"},{\"id\":2,\"email\":\"janet.weaver@reqres.in\",\"first_name\":\"Janet\",\"last_name\":\"Weaver\",\"avatar\":\"https:\/\/reqres.in\/img\/faces\/2-image.jpg\"},{\"id\":3,\"email\":\"emma.wong@reqres.in\",\"first_name\":\"Emma\",\"last_name\":\"Wong\",\"avatar\":\"https:\/\/reqres.in\/img\/faces\/3-image.jpg\"},{\"id\":4,\"email\":\"eve.holt@reqres.in\",\"first_name\":\"Eve\",\"last_name\":\"Holt\",\"avatar\":\"https:\/\/reqres.in\/img\/faces\/4-image.jpg\"},{\"id\":5,\"email\":\"charles.morris@reqres.in\",\"first_name\":\"Charles\",\"last_name\":\"Morris\",\"avatar\":\"https:\/\/reqres.in\/img\/faces\/5-image.jpg\"},{\"id\":6,\"email\":\"tracey.ramos@reqres.in\",\"first_name\":\"Tracey\",\"last_name\":\"Ramos\",\"avatar\":\"https:\/\/reqres.in\/img\/faces\/6-image.jpg\"}],\"support\":{\"url\":\"https:\/\/reqres.in\/#support-heading\",\"text\":\"To keep ReqRes free, contributions towards server costs are appreciated!\"}}","line":8}},{"name":"status 200","result":{"duration":21000,"status":"passed"},"match":{"location":"karate","arguments":[]},"keyword":"Then","line":9},{"name":"def data = response.data","result":{"duration":22514700,"status":"passed"},"match":{"location":"karate","arguments":[]},"keyword":"*","line":10},{"name":"print 'data-------', data","result":{"duration":3816100,"status":"passed"},"match":{"location":"karate","arguments":[]},"keyword":"Then","line":11,"doc_string":{"content_type":"","value":"01:10:57.784 [print] data------- [\n  {\n    \"last_name\": \"Bluth\",\n    \"id\": 1,\n    \"avatar\": \"https:\/\/reqres.in\/img\/faces\/1-image.jpg\",\n    \"first_name\": \"George\",\n    \"email\": \"george.bluth@reqres.in\"\n  },\n  {\n    \"last_name\": \"Weaver\",\n    \"id\": 2,\n    \"avatar\": \"https:\/\/reqres.in\/img\/faces\/2-image.jpg\",\n    \"first_name\": \"Janet\",\n    \"email\": \"janet.weaver@reqres.in\"\n  },\n  {\n    \"last_name\": \"Wong\",\n    \"id\": 3,\n    \"avatar\": \"https:\/\/reqres.in\/img\/faces\/3-image.jpg\",\n    \"first_name\": \"Emma\",\n    \"email\": \"emma.wong@reqres.in\"\n  },\n  {\n    \"last_name\": \"Holt\",\n    \"id\": 4,\n    \"avatar\": \"https:\/\/reqres.in\/img\/faces\/4-image.jpg\",\n    \"first_name\": \"Eve\",\n    \"email\": \"eve.holt@reqres.in\"\n  },\n  {\n    \"last_name\": \"Morris\",\n    \"id\": 5,\n    \"avatar\": \"https:\/\/reqres.in\/img\/faces\/5-image.jpg\",\n    \"first_name\": \"Charles\",\n    \"email\": \"charles.morris@reqres.in\"\n  },\n  {\n    \"last_name\": \"Ramos\",\n    \"id\": 6,\n    \"avatar\": \"https:\/\/reqres.in\/img\/faces\/6-image.jpg\",\n    \"first_name\": \"Tracey\",\n    \"email\": \"tracey.ramos@reqres.in\"\n  }\n]","line":11}},{"name":"def myFun  =","result":{"duration":7456800,"status":"passed"},"match":{"location":"karate","arguments":[]},"keyword":"*","line":13,"doc_string":{"content_type":"","value":"function(arg){\n  for(i=0; i<arg.length; i++){\n    if(args[i].id == 9){\n      return arg[i]\n      }\n    }\n  }","line":13}},{"name":"def userDetails = call myFun data","result":{"duration":41872700,"error_message":"com.intuit.karate.exception.KarateException: userCallFuct.feature:23 - javascript function call failed: <eval>:3 ReferenceError: \"args\" is not defined","status":"failed"},"match":{"location":"karate","arguments":[]},"keyword":"*","line":23,"doc_string":{"content_type":"","value":"01:10:57.834 javascript function call failed: <eval>:3 ReferenceError: \"args\" is not defined\n01:10:57.834 failed function body: function(arg){\n  for(i=0; i<arg.length; i++){\n    if(args[i].id == 9){\n      return arg[i]\n      }\n    }\n  }","line":23}},{"name":"print 'userDetails---', userDetails","result":{"duration":0,"status":"skipped"},"match":{"location":"karate","arguments":[]},"keyword":"Then","line":24}]}],"name":"src\/test\/java\/APITesting\/userCallFuct.feature","description":"Call JavaScript Function","id":"call-javascript-function","keyword":"Feature","uri":"src\/test\/java\/APITesting\/userCallFuct.feature"}]